…
```r
w<-tq_get("ZM",get= "stock.prices",from="2019-10-01",to="2020-06-20")
y<-tq_get("NFLX",get="stock.prices",from="2019-10-01",to="2020-06-20")
s<-tq_get("SNAP",get="stock.prices",from="2019-10-01",to="2020-06-20")
tw<-tq_get("TWTR",get="stock.prices",from="2019-10-01",to="2020-06-20")
wm<-tq_get("WMT",get="stock.prices",from="2019-10-01",to="2020-06-20")
d<-tq_get("DAL",get="stock.prices",from="2019-10-01",to="2020-06-20")
t <- bind_rows(w,y,s,tw,wm,d)
t
```

```
## # A tibble: 1,092 x 8
##    symbol date        open  high   low close  volume adjusted
##    <chr>  <date>     <dbl> <dbl> <dbl> <dbl>   <dbl>    <dbl>
##  1 ZM     2019-10-01  76.4  77.5  75.2  75.8 1378100     75.8
##  2 ZM     2019-10-02  74.5  75.8  73.7  73.8 1388700     73.8
##  3 ZM     2019-10-03  73.9  78.5  73.4  76.8 2605800     76.8
##  4 ZM     2019-10-04  77    77.8  75.3  76.5 1799500     76.5
##  5 ZM     2019-10-07  77.0  77.4  75    77.0 1432200     77.0
##  6 ZM     2019-10-08  76.0  76.4  72.6  73.6 3156600     73.6
##  7 ZM     2019-10-09  74.2  75.1  72.8  72.9 1490100     72.9
##  8 ZM     2019-10-10  72.9  73.8  71.0  71.0 2282200     71.0
##  9 ZM     2019-10-11  71.4  72.9  70.9  71.3 2391800     71.3
## 10 ZM     2019-10-14  70.5  71.2  69.6  70.8 2218100     70.8
## # ... with 1,082 more rows
```

```r
k<-t %>% group_by(symbol) %>% tq_transmute(adjusted,mutate_fun=dailyReturn,col_rename="Ra")
k$Ra<- k$Ra*1000
k1 <- mutate(k,Day=wday(date,label=TRUE),date=date(date),Month=month(date,label=TRUE))
k1
```

```
## # A tibble: 1,092 x 5
## # Groups:   symbol [6]
##    symbol date           Ra Day   Month
##    <chr>  <date>      <dbl> <ord> <ord>
##  1 ZM     2019-10-01   0    Tue   Oct  
##  2 ZM     2019-10-02 -25.9  Wed   Oct  
##  3 ZM     2019-10-03  40.4  Thu   Oct  
##  4 ZM     2019-10-04  -3.90 Fri   Oct  
##  5 ZM     2019-10-07   6.01 Mon   Oct  
##  6 ZM     2019-10-08 -44.2  Tue   Oct  
##  7 ZM     2019-10-09  -9.92 Wed   Oct  
##  8 ZM     2019-10-10 -25.4  Thu   Oct  
##  9 ZM     2019-10-11   4.79 Fri   Oct  
## 10 ZM     2019-10-14  -7.71 Mon   Oct  
## # ... with 1,082 more rows
```
…
