…
```r
gap1 <- gap %>% group_by(continent,year) %>% summarise(mean= weighted.mean(gdpPercap),pop=mean(Population))
```

```
## `summarise()` regrouping output by 'continent' (override with `.groups` argument)
```

```r
gap1
```

```
## # A tibble: 60 x 4
## # Groups:   continent [5]
##    continent  year  mean   pop
##    <fct>     <int> <dbl> <dbl>
##  1 Africa     1952 1253.  45.7
##  2 Africa     1957 1385.  50.9
##  3 Africa     1962 1598.  57.0
##  4 Africa     1967 2050.  64.5
##  5 Africa     1972 2340.  73.1
##  6 Africa     1977 2586.  83.3
##  7 Africa     1982 2482.  96.0
##  8 Africa     1987 2283. 111. 
##  9 Africa     1992 2282. 127. 
## 10 Africa     1997 2379. 143. 
## # ... with 50 more rows
```
…
